Mapas y Censo 2017 en R
…
1.0.0.1 Cargar paquetes

library(chilemapas) # mapas de chile
library(dplyr) # manipulación de datos
library(ggplot2) # visualización de datos
library(scales) # utilidad para visualización de datos
library(sf) # manipulación de datos geográficos

1.0.0.2 Chile Mapas

mapa_comunas <- chilemapas::mapa_comunas

mapa_comunas

# A tibble: 345 × 4
   codigo_comuna codigo_provincia codigo_region                         geometry
   <chr>         <chr>            <chr>                       <MULTIPOLYGON [°]>
 1 01401         014              01            (((-68.86081 -21.28512, -68.921…
 2 01403         014              01            (((-68.65113 -19.77188, -68.811…
 3 01405         014              01            (((-68.65113 -19.77188, -68.635…
 4 01402         014              01            (((-69.31789 -19.13651, -69.271…
 5 01404         014              01            (((-69.39615 -19.06125, -69.400…
 6 01107         011              01            (((-70.1095 -20.35131, -70.1243…
 7 01101         011              01            (((-70.09894 -20.08504, -70.102…
 8 02104         021              02            (((-68.98863 -25.38016, -68.987…
 9 02101         021              02            (((-70.60654 -23.43054, -70.601…
10 02201         022              02            (((-67.94302 -22.38175, -67.955…
# ℹ 335 more rows
…
Necesitamos los nombres, por lo que los pegamos. Una opción puede es obtener datos de Wikipedia con funciones de Webscrapping.

library(rvest)

# dirección de wikipedia con tabla de comunas de Chile
url <- "https://es.wikipedia.org/wiki/Anexo:Comunas_de_Chile"

# obtener tabla con datos de comunas con web scraping
tabla <- session(url) |> 
  read_html() |> 
  html_table(convert = FALSE)

tabla[[1]]

# A tibble: 346 × 12
   CUT (Código Único Territori…¹ Nombre ``    Provincia Región `Superficie(km²)`
   <chr>                         <chr>  <chr> <chr>     <chr>  <chr>            
 1 15101                         Arica  ""    Arica     Arica… 4.799,4          
 2 15102                         Camar… ""    Arica     Arica… 3.927            
 3 15201                         Putre  ""    Parinaco… Arica… 5.902,5          
 4 15202                         Gener… ""    Parinaco… Arica… 2.244,4          
 5 01101                         Iquiq… ""    Iquique   Tarap… 2.242,1          
 6 01107                         Alto … ""    Iquique   Tarap… 572.9            
 7 01401                         Pozo … ""    Tamarugal Tarap… 13.765,8         
 8 01402                         Camiña ""    Tamarugal Tarap… 2.200,2          
 9 01403                         Colch… ""    Tamarugal Tarap… 4.015,6          
10 01404                         Huara  ""    Tamarugal Tarap… 10.474,6         
# ℹ 336 more rows
# ℹ abbreviated name: ¹​`CUT (Código Único Territorial)`
# ℹ 6 more variables: Población2020 <chr>, `Densidad(hab./km²)` <chr>,
#   `IDH 2005` <chr>, `IDH 2005` <chr>, Latitud <chr>, Longitud <chr>
…
datos_comunas

# A tibble: 346 × 5
   codigo_comuna nombre        region             superficie_km2 poblacion
   <chr>         <chr>         <chr>                       <dbl>     <dbl>
 1 15101         Arica         Arica y Parinacota          4799.    247552
 2 15102         Camarones     Arica y Parinacota          3927       1233
 3 15201         Putre         Arica y Parinacota          5902.      2515
 4 15202         General Lagos Arica y Parinacota          2244.       810
 5 01101         Iquique       Tarapacá                    2242.    223463
 6 01107         Alto Hospicio Tarapacá                    5729     129999
 7 01401         Pozo Almonte  Tarapacá                   13766.     17395
 8 01402         Camiña        Tarapacá                    2200.      1375
 9 01403         Colchane      Tarapacá                    4016.      1583
10 01404         Huara         Tarapacá                   10475.      3000
# ℹ 336 more rows

mapa_comunas_2 <- mapa_comunas |> 
  # adjuntar datos al mapa, coincidiendo por columna de código de comunas
  left_join(datos_comunas,
            by = join_by(codigo_comuna)) |> 
  relocate(geometry, .after = 0) # tirar geometría al final

mapa_comunas_2

# A tibble: 345 × 8
   codigo_comuna codigo_provincia codigo_region nombre     region superficie_km2
   <chr>         <chr>            <chr>         <chr>      <chr>           <dbl>
 1 01401         014              01            Pozo Almo… Tarap…         13766.
 2 01403         014              01            Colchane   Tarap…          4016.
 3 01405         014              01            Pica       Tarap…          8934.
 4 01402         014              01            Camiña     Tarap…          2200.
 5 01404         014              01            Huara      Tarap…         10475.
 6 01107         011              01            Alto Hosp… Tarap…          5729 
 7 01101         011              01            Iquique    Tarap…          2242.
 8 02104         021              02            Taltal     Antof…         20405.
 9 02101         021              02            Antofagas… Antof…         30718.
10 02201         022              02            Calama     Antof…         15597.
# ℹ 335 more rows
# ℹ 2 more variables: poblacion <dbl>, geometry <MULTIPOLYGON [°]>
…
# cargar bbdd

censo_descargar()

# con la bbdd instalada

variables <- censo_tabla("variables")
variables_codificacion <- censo_tabla("variables_codificacion")

variables

# A tibble: 60 × 5
   tabla    variable      descripcion                         tipo    rango     
   <chr>    <chr>         <chr>                               <chr>   <chr>     
 1 personas personan      Número de la Persona                integer 0 - 9999  
 2 personas p07           Relación de Parentesco              integer 1 - 19    
 3 personas p08           Sexo                                integer 1 - 2     
 4 personas p09           Edad                                integer 0 - 130   
 5 personas p10           Residencia Habitual                 integer 1 - 4     
 6 personas p10comuna     Comuna de Residencia Habitual       integer 997 - 152…
 7 personas p10pais       Pais de Residencia Habitual         integer 0 - 997   
 8 personas p10pais_grupo Pais de Residencia Habitual (Grupo) integer 0 - 997   
 9 personas p11           Comuna de Residencia Anterior       integer 0 - 9     
10 personas p11comuna     Comuna de Residencia Anterior       integer 997 - 152…
# ℹ 50 more rows
…
indigena_reg3 <- indigena_reg3 %>% 
  group_by(comuna, indigena) %>%
  summarise(cuenta = n()) %>%
  group_by(comuna) %>%
  mutate(proporcion = cuenta / sum(cuenta)); indigena_reg3

`summarise()` has grouped output by 'comuna'. You can override using the
`.groups` argument.

# A tibble: 27 × 4
# Groups:   comuna [9]
   comuna indigena cuenta proporcion
   <chr>     <int>  <int>      <dbl>
 1 03101         1  27078    0.176  
 2 03101         2 125052    0.812  
 3 03101        99   1807    0.0117 
 4 03102         1   3129    0.177  
 5 03102         2  13742    0.778  
 6 03102        99    791    0.0448 
 7 03103         1   4375    0.312  
 8 03103         2   9526    0.680  
 9 03103        99    118    0.00842
10 03201         1   1299    0.106  
# ℹ 17 more rows
…
